{
  "full_name": "",
  "email": "",
  "project_name": "",
  "project_slug": "{{ cookiecutter.project_name.lower().replace(' ', '_').replace('-', '_') }}",
  "project_code": "{{ cookiecutter.project_name.lower().replace(' ', '-').replace('_', '-') }}",
  "project_short_description": "{{ cookiecutter.project_name }}",
  "project_vcs_url": "",
  "python_version": "3.9.6",
  "gitlab_push_to_docker_hub": ["y", "n"],
  "open_source_license": ["MIT license", "BSD license", "ISC license", "Apache Software License 2.0", "GNU General Public License v3", "Not open source"]
}
